{
  "@context": {
    "obi": "https://w3id.org/openbadges#",
    "extensions": "https://w3id.org/openbadges/extensions#",
    "url": "extensions:narrativeTemplate"
  },
  "obi:validation": [{
    "obi:validatesType": "extensions:NarrativeTemplate",
    "obi:validationSchema": "https://static.boldidea.org/openbadge/extensions/narrativeTemplate/schema.json"
  }]
}
